{
  "global": {
    "parseVersion": "1.5.0"
  },
  "applications": {
    "Cubeup": {
      "applicationId": "pVezIHhEYYVbwBFVicOITXvqUAHxtZeCNqWRZrU1",
      "masterKey": "Ms12czeO7rdqbi4uqFsBOeEnPjWf7GyUsuhd4r9e"
    },
    "_default": {
      "link": "Cubeup"
    }
  }
}